USD/MBTU,barranquilla_gas,barranquilla_fo6
2017-01-01 00:00:00,4.38082938728656,9.72835891134409
2017-02-01 00:00:00,4.43033433778161,10.0368637088551
2017-03-01 00:00:00,4.48028770268331,9.97411697037831
2017-04-01 00:00:00,4.53068948199168,9.92182802164762
2017-05-01 00:00:00,4.58162935858803,10.3732559456892
2017-06-01 00:00:00,4.63310733247238,10.761937131254
2017-07-01 00:00:00,4.68503372076338,10.958020688994
2017-08-01 00:00:00,4.73749820634237,11.5323276425527
2017-09-01 00:00:00,4.79041110632802,11.6447488823237
2017-10-01 00:00:00,4.84386210360167,11.7981297986004
2017-11-01 00:00:00,4.8978511981633,12.2957462940208
2017-12-01 00:00:00,4.95237839001292,12.6913993394163
2018-01-01 00:00:00,4.96861099153394,12.7314875334431
2018-02-01 00:00:00,4.96861099153394,12.7881338945681
2018-03-01 00:00:00,4.98161500932702,12.833450983468
2018-04-01 00:00:00,4.99470871000144,12.8805110373256
2018-05-01 00:00:00,5.00780241067585,12.9266996087044
2018-06-01 00:00:00,5.0209857942316,12.9972896894908
2018-07-01 00:00:00,5.03416917778734,13.0452212258273
2018-08-01 00:00:00,5.04735256134309,13.0948957271214
2018-09-01 00:00:00,5.06062562778017,13.1445702284156
2018-10-01 00:00:00,5.07389869421725,13.1933732472309
2018-11-01 00:00:00,5.08726144353566,13.2447907134827
2018-12-01 00:00:00,5.10062419285407,13.2962081797345
2019-01-01 00:00:00,5.07210503659062,13.3798704977036
2019-02-01 00:00:00,5.04376524608983,13.4809624652496
2019-03-01 00:00:00,5.0156048213517,13.5707251605706
2019-04-01 00:00:00,5.17864829961257,13.663973785807
2019-05-01 00:00:00,4.95973238628211,13.7554794460857
2019-06-01 00:00:00,4.93211005883197,13.8731295807298
2019-07-01 00:00:00,4.53974745300617,13.9689926534027
2019-08-01 00:00:00,4.51239417420003,14.0657272085545
2019-09-01 00:00:00,4.48522026115655,14.1633332461851
2019-10-01 00:00:00,4.82314535801406,14.2600678013369
2019-11-01 00:00:00,4.79633017649591,14.360288286404
2019-12-01 00:00:00,4.96968718610992,14.4605087714712
2020-01-01 00:00:00,5.16788635385278,14.5450425719191
2020-02-01 00:00:00,5.46545415411106,14.6470060219439
2020-03-01 00:00:00,5.43415482852633,14.7367687172649
2020-04-01 00:00:00,5.37568158989812,14.8300173425013
2020-05-01 00:00:00,5.1146147223418,14.92152300278
2020-06-01 00:00:00,5.23398263739418,15.0409161023818
2020-07-01 00:00:00,5.18573324723777,15.1359076925758
2020-08-01 00:00:00,5.21945401061845,15.2326422477276
2020-09-01 00:00:00,5.19918567943751,15.3302482853582
2020-10-01 00:00:00,5.12690127708423,15.42698284051
2020-11-01 00:00:00,5.10519801980198,15.5272033255771
2020-12-01 00:00:00,5.00932701965849,15.6274238106443
2021-01-01 00:00:00,5.05569306930693,15.6126086085039
2021-02-01 00:00:00,5.16420935571818,15.6143515734616
2021-03-01 00:00:00,5.20447696943607,15.6047652661943
2021-04-01 00:00:00,5.25075333620319,15.5969219238847
2021-05-01 00:00:00,5.23281675993686,15.5873356166174
2021-06-01 00:00:00,5.30994403788205,15.578620791829
2021-07-01 00:00:00,5.34178146075477,15.5716489319982
2021-08-01 00:00:00,5.42491749174917,15.5646770721675
2021-09-01 00:00:00,5.47119385851629,15.5577052123367
2021-10-01 00:00:00,5.48348041325872,15.5498618700271
2021-11-01 00:00:00,5.55280528052805,15.544632975154
2021-12-01 00:00:00,5.57845458458889,15.5385325978021
2022-01-01 00:00:00,5.59908164729517,15.5019303336906
2022-02-01 00:00:00,5.7135170038743,15.4818862366772
2022-03-01 00:00:00,5.75925527335342,15.44964138496
2022-04-01 00:00:00,5.78427679724494,15.4191394982004
2022-05-01 00:00:00,5.78876094131152,15.387766128962
2022-06-01 00:00:00,5.8539603960396,15.3572642422024
2022-07-01 00:00:00,5.90212010331468,15.3285053204005
2022-08-01 00:00:00,5.95790285550294,15.2997463985987
2022-09-01 00:00:00,6.0105467068446,15.2709874767968
2022-10-01 00:00:00,6.02722772277228,15.2413570725161
2022-11-01 00:00:00,6.09350337207634,15.2143411156719
2022-12-01 00:00:00,6.13188764528627,15.1864536763488
2023-01-01 00:00:00,6.08740493614579,15.1271928677874
2023-02-01 00:00:00,6.17242430764816,15.084490226324
2023-03-01 00:00:00,6.20192997560626,15.0304583126356
2023-04-01 00:00:00,6.22327450136318,14.9781693639049
2023-05-01 00:00:00,6.22542689051514,14.9241374502166
2023-06-01 00:00:00,6.2968144640551,14.8718485014859
2023-07-01 00:00:00,6.32892093557182,14.820431035234
2023-08-01 00:00:00,6.38954656335199,14.769885051461
2023-09-01 00:00:00,6.42739273927393,14.7202105501669
2023-10-01 00:00:00,6.45465633519874,14.6687930839151
2023-11-01 00:00:00,6.52873439517865,14.6199900650997
2023-12-01 00:00:00,6.56568374228727,14.5711870462844
2024-01-01 00:00:00,6.61769981345961,14.579030388594
2024-02-01 00:00:00,6.67958100157842,14.6034318980017
2024-03-01 00:00:00,6.73697804563065,14.6156326527055
2024-04-01 00:00:00,6.77195436934998,14.6287048898882
2024-05-01 00:00:00,6.80065289137609,14.6417771270709
2024-06-01 00:00:00,6.87419285406802,14.6548493642535
2024-07-01 00:00:00,6.91903429473382,14.6696645663939
2024-08-01 00:00:00,6.97284402353279,14.6844797685343
2024-09-01 00:00:00,7.03562204046492,14.7001664531535
2024-10-01 00:00:00,7.06611422011766,14.714110172815
2024-11-01 00:00:00,7.12261443535658,14.730668339913
2024-12-01 00:00:00,7.17552733534223,14.7463550245322
2025-01-01 00:00:00,7.23651169464773,14.7393831647015
2025-02-01 00:00:00,7.31543263021954,14.7489694719688
2025-03-01 00:00:00,7.36744870139188,14.7472265070111
2025-04-01 00:00:00,7.40601234036447,14.7463550245322
2025-05-01 00:00:00,7.43650452001722,14.7446120595745
2025-06-01 00:00:00,7.50107619457598,14.7428690946169
2025-07-01 00:00:00,7.56026689625484,14.7428690946169
2025-08-01 00:00:00,7.62394174200029,14.7437405770957
2025-09-01 00:00:00,7.69927536231884,14.7437405770957
2025-10-01 00:00:00,7.73694217247812,14.7437405770957
2025-11-01 00:00:00,7.80599799110346,14.7454835420534
2025-12-01 00:00:00,7.86339503515569,14.7463550245322
2026-01-01 00:00:00,7.90554598938155,14.7541983668418
2026-02-01 00:00:00,7.97998278088679,14.7785998762495
2026-03-01 00:00:00,8.03289568087244,14.7908006309533
2026-04-01 00:00:00,8.05083225713876,14.8047443506148
2026-05-01 00:00:00,8.05980054527192,14.8169451053187
2026-06-01 00:00:00,8.11630076051083,14.8308888249802
2026-07-01 00:00:00,8.16383268761659,14.8448325446417
2026-08-01 00:00:00,8.20060266896255,14.8605192292609
2026-09-01 00:00:00,8.26248385708136,14.8753344314013
2026-10-01 00:00:00,8.29118237910748,14.8892781510628
2026-11-01 00:00:00,8.35037308078634,14.9058363181608
2026-12-01 00:00:00,8.39611135026546,14.9223944852589
2027-01-01 00:00:00,8.41584158415842,14.94418154723
2027-02-01 00:00:00,8.45888936719759,14.983398258778
2027-03-01 00:00:00,8.47413545702396,15.0095427331434
2027-04-01 00:00:00,8.47682594346391,15.0383016549452
2027-05-01 00:00:00,8.4759291146506,15.0653176117894
2027-06-01 00:00:00,8.50193715023676,15.0932050511124
2027-07-01 00:00:00,8.51628641124982,15.1228354553932
2027-08-01 00:00:00,8.53781030276941,15.1524658596739
2027-09-01 00:00:00,8.56650882479552,15.1829677464335
2027-10-01 00:00:00,8.57009614004879,15.2117266682353
2027-11-01 00:00:00,8.59520734682164,15.2422285549949
2027-12-01 00:00:00,8.61673123834123,15.2736019242333
2028-01-01 00:00:00,8.63466781460755,15.3241479080063
2028-02-01 00:00:00,8.65888219256708,15.3912520588774
2028-03-01 00:00:00,8.66964413832688,15.4470269375234
2028-04-01 00:00:00,8.68130291289999,15.5036732986483
2028-05-01 00:00:00,8.68489022815325,15.5603196597732
2028-06-01 00:00:00,8.69654900272636,15.617837503377
2028-07-01 00:00:00,8.70910460611279,15.6762268294596
2028-08-01 00:00:00,8.72435069593916,15.735487638021
2028-09-01 00:00:00,8.73690629932559,15.7956199290613
2028-10-01 00:00:00,8.73959678576553,15.8540092551439
2028-11-01 00:00:00,8.75215238915196,15.9150130286631
2028-12-01 00:00:00,8.7656048213517,15.9760168021822
2029-01-01 00:00:00,8.80775577557756,16.0126190662937
2029-02-01 00:00:00,8.85259721624336,16.066650979982
2029-03-01 00:00:00,8.89026402640264,16.1076106564878
2029-04-01 00:00:00,8.92613717893529,16.1503132979511
2029-05-01 00:00:00,8.95393887214808,16.1921444569357
2029-06-01 00:00:00,8.99608982637394,16.2348470983991
2029-07-01 00:00:00,9.04003443822643,16.2784212223413
2029-08-01 00:00:00,9.07770124838571,16.3228668287624
2029-09-01 00:00:00,9.12343951786483,16.3681839176623
2029-10-01 00:00:00,9.15841584158416,16.4117580416046
2029-11-01 00:00:00,9.20056679581002,16.4579466129833
2029-12-01 00:00:00,9.24182092122256,16.5041351843621
2030-01-01 00:00:00,9.2606543263022,16.5755967476274
2030-02-01 00:00:00,9.28217821782178,16.6644879604696
2030-03-01 00:00:00,9.29832113646147,16.7411784186079
2030-04-01 00:00:00,9.31446405510116,16.8196118417039
2030-05-01 00:00:00,9.32163868560769,16.8980452648
2030-06-01 00:00:00,9.34316257712728,16.976478687896
2030-07-01 00:00:00,9.36378963983355,17.0575265584285
2030-08-01 00:00:00,9.38082938728656,17.1385744289611
2030-09-01 00:00:00,9.40145644999283,17.2213652644514
2030-10-01 00:00:00,9.41311522456594,17.3024131349839
2030-11-01 00:00:00,9.43463911608552,17.386075452953
2030-12-01 00:00:00,9.45257569235185,17.470609253401
2031-01-01 00:00:00,9.49,17.51
2031-02-01 00:00:00,9.53,17.57
2031-03-01 00:00:00,9.57,17.62
2031-04-01 00:00:00,9.61,17.67
2031-05-01 00:00:00,9.65,17.72
2031-06-01 00:00:00,9.69,17.77
2031-07-01 00:00:00,9.74,17.82
2031-08-01 00:00:00,9.78,17.88
2031-09-01 00:00:00,9.82,17.93
2031-10-01 00:00:00,9.86,17.98
2031-11-01 00:00:00,9.91,18.03
2031-12-01 00:00:00,9.95,18.09
2032-01-01 00:00:00,9.95,18.12
2032-02-01 00:00:00,9.96,18.18
2032-03-01 00:00:00,9.96,18.22
2032-04-01 00:00:00,9.96,18.26
2032-05-01 00:00:00,9.96,18.3
2032-06-01 00:00:00,9.97,18.35
2032-07-01 00:00:00,9.97,18.39
2032-08-01 00:00:00,9.97,18.43
2032-09-01 00:00:00,9.98,18.48
2032-10-01 00:00:00,9.98,18.52
2032-11-01 00:00:00,9.98,18.57
2032-12-01 00:00:00,9.99,18.61
2033-01-01 00:00:00,10.01,18.65
2033-02-01 00:00:00,10.05,18.7
2033-03-01 00:00:00,10.08,18.75
2033-04-01 00:00:00,10.1,18.79
2033-05-01 00:00:00,10.13,18.83
2033-06-01 00:00:00,10.16,18.87
2033-07-01 00:00:00,10.19,18.92
2033-08-01 00:00:00,10.22,18.96
2033-09-01 00:00:00,10.25,19.01
2033-10-01 00:00:00,10.28,19.05
2033-11-01 00:00:00,10.31,19.1
2033-12-01 00:00:00,10.34,19.14
2034-01-01 00:00:00,10.37,19.17
2034-02-01 00:00:00,10.41,19.22
2034-03-01 00:00:00,10.43,19.25
2034-04-01 00:00:00,10.47,19.29
2034-05-01 00:00:00,10.49,19.32
2034-06-01 00:00:00,10.53,19.36
2034-07-01 00:00:00,10.56,19.4
2034-08-01 00:00:00,10.59,19.43
2034-09-01 00:00:00,10.63,19.47
2034-10-01 00:00:00,10.66,19.51
2034-11-01 00:00:00,10.69,19.54
2034-12-01 00:00:00,10.72,19.58
2035-01-01 00:00:00,10.74,19.61
2035-02-01 00:00:00,10.76,19.66
2035-03-01 00:00:00,10.77,19.69
2035-04-01 00:00:00,10.79,19.73
2035-05-01 00:00:00,10.8,19.76
2035-06-01 00:00:00,10.81,19.8
2035-07-01 00:00:00,10.83,19.84
2035-08-01 00:00:00,10.84,19.87
2035-09-01 00:00:00,10.86,19.91
2035-10-01 00:00:00,10.87,19.95
2035-11-01 00:00:00,10.89,19.98
2035-12-01 00:00:00,10.9,20.02
