,max (MW),Entrance_Stage,Tipo,Area,Fuel,dummy,GenMin,GenMax,forced_unavailability ,historic_unavailability ,O&M variable,MBTU/MWh
BARRANQUILLA3,55,E,Gas,CARIBE,barranquilla_gas,,0,55,18.14,32.89,27.03,11.1504
BARRANQUILLA3_FO6,55,NE,FuelOil,CARIBE,barranquilla_fo6,BARRANQUILLA3,0,55,18.14,32.89,29.29,11.4747
BARRANQUILLA4,55,E,Gas,CARIBE,barranquilla_gas,,0,55,27.8,39.55,27.03,11.1504
BARRANQUILLA4_FO6,55,NE,FuelOil,ANTIOQUIA,barranquilla_fo6,BARRANQUILLA4,0,55,27.8,39.55,29.29,11.0052
CARTAGENA1,61,E,Gas,ANTIOQUIA,cartagena_gas,,0,61,62.22,73.71,27.03,13.2503
