,capacity (MW),Losses,density(Kg/m3),efficiency,diameter(m),number_turbines,Entrance_Stage,Initial_Storage_Stage,Area,forced_unavailability ,Variability (%),Speed_in,Spped_out
Isagen250_3766,380,0.98,1.25,0.35,2.2,77,2019-01-01 00:00:00,1,GCM,0,18,4.5,20
Isagen132_200,200,0.96,1.25,0.35,2.2,42,2020-01-01 00:00:00,1,GCM,0,19,4.5,19
